[header]
width=5
height=5
tilewidth=32
tileheight=32
orientation=orthogonal

[tilesets]
tileset=ぷろみる資料/マップチップセット/ぴぽやマップチップセット01_0118/pipoya_mcset1_base01.png,32,32,0,0

[layer]
type=ground
data=
1,1,1,1,1,
1,1,1,1,1,
1,1,1,1,1,
1,1,1,1,1,
1,1,1,1,1

[layer]
type=tree
data=
17,0,0,0,17,
0,0,0,0,0,
0,0,0,0,0,
0,0,0,0,0,
17,0,0,0,17

